{
  "files": {
    "main.css": "/static/css/main.a79df5bc.chunk.css",
    "main.js": "/static/js/main.9f3e6413.chunk.js",
    "main.js.map": "/static/js/main.9f3e6413.chunk.js.map",
    "runtime-main.js": "/static/js/runtime-main.0eca3856.js",
    "runtime-main.js.map": "/static/js/runtime-main.0eca3856.js.map",
    "static/js/2.0be49f66.chunk.js": "/static/js/2.0be49f66.chunk.js",
    "static/js/2.0be49f66.chunk.js.map": "/static/js/2.0be49f66.chunk.js.map",
    "index.html": "/index.html",
    "precache-manifest.b67f3f1c412b879f76f856174118d864.js": "/precache-manifest.b67f3f1c412b879f76f856174118d864.js",
    "service-worker.js": "/service-worker.js",
    "static/css/main.a79df5bc.chunk.css.map": "/static/css/main.a79df5bc.chunk.css.map",
    "static/js/2.0be49f66.chunk.js.LICENSE": "/static/js/2.0be49f66.chunk.js.LICENSE",
    "static/media/bot-image.png": "/static/media/bot-image.2e5c1a10.png",
    "static/media/bot_icon.gif": "/static/media/bot_icon.ebe19359.gif",
    "static/media/digital-logo.png": "/static/media/digital-logo.97991a2f.png",
    "static/media/LoginPage.css": "/static/media/login-bg-2.5664fcfb.jpg",
    "static/media/user.jpg": "/static/media/user.899048ab.jpg"
  },
  "entrypoints": [
    "static/js/runtime-main.0eca3856.js",
    "static/js/2.0be49f66.chunk.js",
    "static/css/main.a79df5bc.chunk.css",
    "static/js/main.9f3e6413.chunk.js"
  ]
}