﻿{
  "Issue": "Windows Start",
  "id": "http://hp.dezide.com/ts/start.jsp?guide=SlowComputerPerformance.net&section=external&language=english&lc=en&cc=us&tracking=op9m98df&dcsession=53926542&action=step&response=5&step=C22085&session=59a54236-3b97-4d1f-8638-e2a6be",
  "Next": [
    {
      "Yes": "http://hp.dezide.com/ts/start.jsp?guide=SlowComputerPerformance.net&section=external&language=english&lc=en&cc=us&tracking=op9m98df&dcsession=53926542&action=step&response=0&step=C22099.C18264&session=59a54236-3b97-4d1f-8638-e2a6be"
    },
    {
      "No": "http://hp.dezide.com/ts/start.jsp?guide=SlowComputerPerformance.net&section=external&language=english&lc=en&cc=us&tracking=op9m98df&dcsession=53926542&action=step&response=1&step=C22099.C18264&session=59a54236-3b97-4d1f-8638-e2a6be"
    }
  ],
  "Content_fr": "Mise à jour de pilotes par le biais de HP Support Assistant 8 ou installez les derniers pilotes de support.hp.com",
  "Steps_fr": [
    "Utiliser HP Support Assistant Mise à jour automatique des pilotes et HP software. Si votre système n’a pas de soutien assistant installé, installez HPSA ou télécharger les pilotes de hp.com.",
    "HP recommande d’utiliser HP Support Assistant sur une base régulière. Courir à HP Support Assistant pour analyser votre ordinateur et obtenir le statut de toutes les tâches de maintenance disponible et recherchez les mises à jour importantes de HP pilote.",
    "Remarque : Assurez-vous que vous utilisez HP Support Assistant version 8 ou ultérieure. Télécharger la version actuelle de HP Support Assistant sur la page Web HP Support Assistant.",
    "Dans la barre des tâches, cliquez sur l’icône HP Support Assistant.S’il n’y a pas d’icône dans la barre des tâches, recherchez et ouvrez HP Support Assistant dans Windows.HP.dezide.com\\/data\\/pictures\\/HP-External\\/web_author\\/GUID-2b140cd1-20B7-40ba-a1dd-f4f2875a05ed-low_56028_en.jpg",
    "Cliquez sur mes appareils haut de la fenêtre HP Support Assistant, puis cliquez sur mises à jour dans la boîte de mon PC.Figure : Mises à jour dans la fenêtre de mon PC les mises à jour s’ouvre.HP.dezide.com\\/data\\/pictures\\/HP-External\\/web_author\\/GUID-5cb2ddaa-03EA-4c16-906e-463dbd290d9f-low_56029_en.jpg",
    "Si HP Support Assistant détecte les mises à jour, les mises à jour s’affichent dans la fenêtre de mises à jour disponible.Figure : Met à jour la fenêtre \\/\\/hp.dezide.com\\/data\\/pictures\\/hp-external\\/web_author\\/guid-e58b27f2-9756-4794-a79d-487eabed8372-low_56030_en.jpg",
    " Pour vérifier les dernières mises à jour, cliquez sur Rechercher les mises à jour et les messages.HP Support Assistant se connecte aux serveurs HP et effectue les actions suivantes : téléchargements et des messages rassemble les informations de configuration analyse votre système informatique prépare une liste d’actions si HP Support Assistant détecte les mises à jour, ils affichent dans la Fenêtre disponible mises à jour.Figure : Mises à jour disponible fenetre de reporter ou de supprimer une mise à jour, utilisez les étapes suivantes.a. à côté du message que vous voulez reporter, cliquez sur Rappelez-moi.b. Sélectionnez demain, une semaine ou un mois, selon quand vous souhaitez être rappelé.Pour supprimer une mise à jour, cliquez sur à côté de la mise à jour.Pour installer la mise à jour maintenant, cliquez sur l’installation maintenant icône () à côté de la mise à jour.Pour passer en revue les actions terminées et avait été différées, faites défiler jusqu'à la section du journal Action.\\/\\/hp.dezide.com\\/data\\/pictures\\/hp-external\\/web_author\\/guid-745ea0b8-a605-40d1-b686-435657e4792f-low_56032_en.jpg HP.dezide.com\\/data\\/pictures\\/HP-External\\/web_author\\/GUID-9982fa45-2c3b-4F7F-9c5f-a68e64bbbcc8-low_56031_en.jpg \\/ \\/ HP.dezide.com\\/data\\/pictures\\/HP-External\\/web_author\\/GUID-fc7f9e19-0559-407e-9320-73526f1d8649-low_56033_en.jpg ",
    "HP fournit de nombreux téléchargements gratuits de logiciels et le pilote. Suivez les étapes ci-dessous pour télécharger les pilotes et mises à jour de HP :",
    "Aller à la page d’HP Software and Driver Downloads.",
    " Tout d’abord, identifiez votre produit en utilisant une des méthodes suivantes.Laisser les HP à trouver mes produits. Cliquez sur identifier maintenant et attendez pendant que HP identifie votre produit. Puis sélectionnez votre produit.Entrer mon numéro de modèle de HP.a. Entrez le nom du modèle de votre ordinateur HP ou Compaq. Par exemple, Pavilion HPE h8-1360t Desktop.b. cliquez sur Rechercher mon produit.Avant que vous pouvez accéder à la page de support de votre produit, vous pouvez devez sélectionner un numéro de modèle dans une liste. Dans l’affirmative, sélectionnez votre numéro de modèle dans la liste.Figure : Téléchargements de logiciel et le pilote \\/\\/hp.dezide.com\\/data\\/pictures\\/hp-external\\/web_author\\/guid-e6486784-4e2f-4c3a-9bad-7801db48c70b-low_56034_en.jpg de Page ",
    "Dans votre page de support produit, sélectionnez la langue du conducteur et le système d’exploitation.Remarque : Si vous avez un produit commercial de PC, par exemple un poste de travail ou un ProBook, vous accédez à un site différent du support HP, et les étapes suivantes ne fonctionneront pas.Figure : Sélectionnez le pilote langue et système d’exploitation \\/\\/hp.dezide.com\\/data\\/pictures\\/hp-external\\/web_author\\/guid-4ded5cad-ffb6-4783-bdf9-3719ade50ed7-low_55920_en.jpg \\/\\/hp.dezide.com\\/data\\/pictures\\/hp-external\\/web_author\\/ Guid-58d13556-2f5f-44d1-A182-b6d112e13d54-low_56035_en.jpg",
    "Attendre que la page Web génère une liste des logiciels disponibles et des catégories de pilote pour le système d’exploitation que vous avez sélectionné.Remarque : Si vous ne trouvez pas le système d’exploitation que vous voulez dans la liste, HP n’a pas de pilotes pour ce système d’exploitation. Voir les autres sections de cette page pour d’autres façons que vous pouvez trouver le logiciel et les pilotes.HP.dezide.com\\/data\\/pictures\\/HP-External\\/web_author\\/GUID-4ded5cad-ffb6-4783-BDF9-3719ade50ed7-low_55920_en.jpg",
    "Cliquez sur le signe plus (+) à côté d’une catégorie ou double-cliquez sur le nom de catégorie pour l’ouvrir.Figure : Sélectionnez un téléchargement IMPORTANT : Si vous voyez plus d’un téléchargement disponible pour un composant (par exemple, plusieurs mises à jour firmware DVD), vous devez déterminer quel composant est installé sur votre ordinateur et téléchargez le fichier approprié. Pour trouver le nom d’un composant, accédez au gestionnaire de périphérique et cliquez sur le signe plus (+) en regard de la catégorie (par exemple, les lecteurs de CD-ROM\\/DVD-ROM). Nom de fabricant original du composant est répertorié dans la catégorie. Utilisez ces informations pour identifier le téléchargement nécessaire pour votre produit.Remarque : Si une mise à jour pilote ou logiciel spécifique n’est pas répertorié sur la page Web, le logiciel original qui se trouve déjà sur l’ordinateur pourrait être la dernière version disponible.\\/\\/hp.dezide.com\\/data\\/pictures\\/hp-external\\/web_author\\/guid-4ded5cad-ffb6-4783-bdf9-3719ade50ed7-low_55920_en.jpg HP.dezide.com\\/data\\/pictures\\/HP-External\\/web_author\\/GUID-898ac942-bfc5-493A-8fec-5cbebc5b8af4-low_56036_en.jpg",
    "Cliquez sur Télécharger pour démarrer le processus de téléchargement et d’installation ou cliquez sur le titre du téléchargement pour obtenir plus d’informations et options immédiatement.Figure : Exemple de page de téléchargement de logiciel avec l’onglet Description sélectionné \\/\\/hp.dezide.com\\/data\\/pictures\\/hp-external\\/web_author\\/guid-3b9f5db0-32cb-4a35-82aa-43b0d4fd9ac4-low_56037_en.jpg",
    " Selon votre navigateur, utilisez l’une des méthodes suivantes pour télécharger et installer : dans Internet Explorer, un avertissement de sécurité s’affiche vous demandant si vous souhaitez exécuter ou enregistrer le fichier. Si vous sélectionnez Exécuter, il va automatiquement télécharger et lancer l’installation. Si vous sélectionnez Enregistrer, il va télécharger le fichier sur votre ordinateur et vous pouvez ouvrir le fichier à une date ultérieure. Il est important de se rappeler où vous enregistrez le fichier pour que vous puissiez l’ouvrir plus tard.Dans Mozilla Firefox, cliquez sur enregistrer le fichier. Le fichier télécharge et ouvre une fenêtre de téléchargement. Lorsque le téléchargement est terminé, double-cliquez sur le fichier dans la fenêtre des téléchargements.",
    "Suivez les instructions pour installer le logiciel ou le pilote.",
    "Cela résout-il le problème ? Cliquez sur « Non » pour la solution suivante."
  ],
  "Content_en": "Update drivers through HP Support Assistant 8 or install latest drivers from support.hp.com",
  "Steps_en": [
    "Use HP Support Assistant to automatically update Drivers and HP software. If your system does not have support assistant installed, either install HPSA or download drivers from hp.com.",
    "HP recommends using HP Support Assistant on a regularly scheduled basis. Run HP Support Assistant to scan your computer and get the status of any available maintenance tasks and check for important HP driver updates.",
    "NOTE: Make sure you are using HP Support Assistant version 8, or later. Download the current version of HP Support Assistant from the HP Support Assistant webpage.",
    "On the taskbar, click the HP Support Assistant icon.\nIf there is no icon in the taskbar, search for and open HP Support Assistant in Windows.\n//hp.dezide.com/data/pictures/hp-external/web_author/guid-2b140cd1-20b7-40ba-a1dd-f4f2875a05ed-low_56028_en.jpg\n",
    "Click My devices on the top of the HP Support Assistant window, then click Updates in the My PC box.\nFigure: Updates in the My PC box\n\nThe Updates window opens.\n//hp.dezide.com/data/pictures/hp-external/web_author/guid-5cb2ddaa-03ea-4c16-906e-463dbd290d9f-low_56029_en.jpg\n",
    "If HP Support Assistant detects updates, the updates display in the Updates available window.\nFigure: Updates window\n\n//hp.dezide.com/data/pictures/hp-external/web_author/guid-e58b27f2-9756-4794-a79d-487eabed8372-low_56030_en.jpg\n",
    " To check for recent updates, click Check for updates and messages.\nHP Support Assistant connects to the HP servers and performs the following actions:\nDownloads messages and updates\nGathers configuration information\nAnalyzes your computer system\nPrepares an action list\n\nIf HP Support Assistant finds updates, they display in the Updates available window.\nFigure: Updates available window\n\nTo postpone or delete a current update, use the following steps.\na. Next to the message you want to postpone, click Remind me.\nb. Select Tomorrow, One week, or One month, depending on when you want to be reminded.\n\nTo delete an update, click  next to the update.\nTo install the update now, click the Install now icon () next to the update.\nTo review completed and postponed actions, scroll to the Action log section.\n\n//hp.dezide.com/data/pictures/hp-external/web_author/guid-9982fa45-2c3b-4f7f-9c5f-a68e64bbbcc8-low_56031_en.jpg //hp.dezide.com/data/pictures/hp-external/web_author/guid-745ea0b8-a605-40d1-b686-435657e4792f-low_56032_en.jpg //hp.dezide.com/data/pictures/hp-external/web_author/guid-fc7f9e19-0559-407e-9320-73526f1d8649-low_56033_en.jpg ",
    "HP provides many free software and driver downloads. Use the steps below to download updates and drivers from HP:",
    "Go to the HP Software and Driver Downloads page.\n",
    " First, identify your product using one of the following methods.\nLet HP find my products. Click Identify now and wait while HP identifies your product. Then select your product.\n\nEnter my HP model number.\na. Enter the model name for your HP or Compaq computer. For example, Pavilion HPE h8-1360t Desktop.\nb. Click Find my product.\nYou might need select a model number from a list before you can access your product’s support page. If so, select your model number from the list.\nFigure: Software and Driver Downloads Page\n\n\n\n//hp.dezide.com/data/pictures/hp-external/web_author/guid-e6486784-4e2f-4c3a-9bad-7801db48c70b-low_56034_en.jpg ",
    "From your product support page, select the driver language and operating system.\nNOTE: If you have a commercial PC product, such as a workstation or a ProBook, you are taken to a different HP support site, and the following steps will not work.\nFigure: Select the driver language and operating system\n\n//hp.dezide.com/data/pictures/hp-external/web_author/guid-4ded5cad-ffb6-4783-bdf9-3719ade50ed7-low_55920_en.jpg\n//hp.dezide.com/data/pictures/hp-external/web_author/guid-58d13556-2f5f-44d1-a182-b6d112e13d54-low_56035_en.jpg\n",
    "Wait while the webpage generates a list of the available software and driver categories for the operating system that you selected.\nNOTE: If you cannot find the operating system you want in the list, HP does not have drivers for that operating system. See the other sections within this page for other ways you can find software and drivers.\n//hp.dezide.com/data/pictures/hp-external/web_author/guid-4ded5cad-ffb6-4783-bdf9-3719ade50ed7-low_55920_en.jpg\n",
    "Click the plus (+) sign next to a category or double-click the category name to open it.\nFigure: Select a download\n\nIMPORTANT: If you see more than one download available for a component (such as several DVD firmware updates), you need to identify which component is installed in your computer and download the appropriate file. To find the name of a component, go to Device Manager and click the plus sign (+) next to the category (for example, DVD/CD ROM drives). The component’s original manufacturer name is listed within the category. Use this information to identify the download needed for your product.\nNOTE: If a specific software or driver update is not listed on the webpage, the original software that is already on the computer might be the latest version available.\n//hp.dezide.com/data/pictures/hp-external/web_author/guid-898ac942-bfc5-493a-8fec-5cbebc5b8af4-low_56036_en.jpg\n//hp.dezide.com/data/pictures/hp-external/web_author/guid-4ded5cad-ffb6-4783-bdf9-3719ade50ed7-low_55920_en.jpg\n",
    "Click Download to immediately start the download and installation process or click the title of the download to get more information and options.\nFigure: Software download page example with Description tab selected\n//hp.dezide.com/data/pictures/hp-external/web_author/guid-3b9f5db0-32cb-4a35-82aa-43b0d4fd9ac4-low_56037_en.jpg\n",
    " Depending on your browser, use one of the following methods to download and install:\nIn Internet Explorer, a Security Warning displays asking if you want to run or save the file. If you select Run, it will automatically download and start the installation. If you select Save, it will download the file to your computer and you can open the file at a later time. It is important to remember where you save the file so that you can open it later.\nIn Mozilla Firefox, click Save File. The file downloads and a Downloads window opens. When the download is complete, double-click the file in the Downloads window.\n\n",
    "Follow the instructions to install the software or driver.",
    "Does this solve the problem? Click 'No' for the next solution."
  ]
}
