{

    "Keys":"Print jobs are getting stuck-Yes, I couldn't print after the update",
    "Solve":["Print jobs stuck in que after Windows 10 update \n\n If you are experiencing intermittent print spooler service errors that are causing print jobs to fail, please run Windows update on your computer to get the latest in Windows updates. ", " Running Windows Update ", " 1.Select the Start button ", " 2.go to Settings Update & security Windows Update ", " 3.select Check for updates."],
    "Alt_sol":["Check for error messages\n\nIf your printer has any problems with the hardware, such as a paper jam or a carriage jam, incorrectly installed cartridges, or even low ink, it could appear that print jobs are getting stuck in the print queue.","1.Look at your printer and your computer screen.\n\n2.If lights are blinking or any error conditions exist, clear them.\n\n3.Try to print again."]
}