{

    "Keys":"Printer is offline-Mac",
    "Solve":["HP Printers - Printer is Offline (Mac) \n\n These steps are for all HP printers and computers with macOS and OS X. " , " The message ‘offline’ displays as the status for a printer or the message ‘Printer not responding’ displays when attempting to print.", " Offline indicates that the Mac cannot communicate with the printer. The offline message displays when the printer is powered off, or a USB cable connection has become disconnected. ", " Figure 1: Printer status examples \n\n https://support.hp.com/doc-images/199/c04717082.jpg"],
    "Alt_Sol":["If your printer displays in the Printer list on your computer, it is connected to the computer. Open the Printer list to make sure your printer is connected.","1.Restart your printer and wait for the printer to become idle.","2.If the connection is not restored after restarting your printer, restart your router.\n\n   ->Finish or close all activity occurring on the network.\n\n   ->Disconnect the power cord from your router, and wait 10 seconds.\n\n   ->Connect the power cord and wait for the router to initialize and establish a new connection to your Internet Service Provider. The Internet activity light should indicate a normal state before continuing.","3.Restart the computer and wait for it to become idle.","4.When the computer has finished restarting, click the Apple icon , and then click System Preferences.","5.Click Printers and Scanners, Print & Fax, or Print & Scan to open the Printers list.","6.Click your HP printer in the Printers list, and then click Open Print Queue.\n\n   ->If the printer does not display in the device list, and no options for the printer are shown, there is no network connection. Stop troubleshooting, and then search for a document related to connecting your printer to network.\n\n   ->If the printer displays in the device list and the printer options are shown, the printer is connected to the network. Try printing again and continue to the next step below if the problem persists."]
}